{
    "time": 9,
    "code": 200,
    "response": {
        "found_documents": 66,
        "results": [
            {
                "date": "2012-03-31T00:00:00.000+0000",
                "image": "https://aliqtisadi.com/wp-content/uploads/2012/sy-11725.jpg",
                "id": "52422",
                "title": "السورية للطيران تنافس في برامج الحج والعمرة",
                "content": " بحث مدير الشؤون التجارية والتسويق في السورية للطيران ناصر قيدبان مع ممثلي مكاتب السياحة والحج والعمرة الصعوبات والمعوقات التي تواجه هذه المكاتب والمتمثلة بدخول شركات الطيران الأردنية كمنافس للسورية واستقطاب المعتمرين والحجاج .وطلب ممثلو المكاتب تخفيض أسعار تذاكر الطيران الخاصة بالحج والعمره ليتمكنوا من استقطاب الزبائن مع بداية موسم العمرة .‏ من جانبه أشار قيدبان بحسب صحيفة الثورة إلى واجب المؤسسة في تأمين نقل المعتمرين بأيسر الطرق وبأسعار مناسبة والتقيد بعدم التشغيل الخاسر لاي رحلة على متن السورية للطيران.‏ مؤكداً قيام المديرية التجارية بدراسة سعر الكلفة من جديد ووضع التسعيرة المناسبة للمؤسسة والمكاتب السياحية وبما يسهم بدخول السورية كمنافس لشركات الطيران الاخرى.‏ ",
                "tags": [
                    "سياحة"
                ]
            },
            {
                "date": "2012-03-31T00:00:00.000+0000",
                "image": "https://aliqtisadi.com/wp-content/uploads/2012/sy-11726.jpg",
                "id": "52424",
                "title": "دخاخني: بعد عجز الاقتصاد عن مراقبة الأسعار.. تشغيل فائض العمالة في الرقابة حلاً جيداً",
                "content": " بين نائب رئيس غرفة صناعة دمشق عصام زمريق أنه لا سبب لارتفاع أسعار السلع في الأسواق، فهي مواد منتجه محلياً سواء البرغل أو العدس أم حتى الكثير من أنواع الحلويات مثل البرازق.يسانده في هذا الرأي رئيس جمعية حماية المستهلك عدنان دخاخني الذي يبين أن المشكلة الأساسية تكمن في فقدان الرادع الداخلي لدى بعض التجار، مؤكداً أن المشكلة الأساسية في ارتفاع أسعار بعض المواد المنتجة محلياً يعود للحلقات الوسيطة التي تؤدي إلى مضاعفة سعر المنتج وبالتالي فإن الخاسر بهذه الحالة هو الفلاح والمستهلك، فالفلاح يبيع إنتاجه بثمن بخس للحلقات الوسيطة التي تضاعف ثمن المنتج على حساب كل من الفلاح والمستهلك.هذا الأمر وفقاً لزمريق يستدعي من الجهات الحكومية إيجاد أسواق لبيع المنتج مباشرة من الفلاح إلى المستهلك، بحيث تزيد من هامش ربح الفلاح وتخفف من مدفوعات المستهلك، حيث يصل المنتج بنصف ثمنه تقريباً إليه، ذلك أن الموزع لا يقنع بربح أقل من 15% بل يسعى إلى أن يربح 100%.ويؤكد دخاخني أن السعر يمكن أن ينخفض فقط عند أصحاب الوجدان، مبيناً أن ربح البقال في السابق هو الكيس الذي يعبئ فيه السكر، أو الكرتونة التي يعبئ بها البيض في حين أن الوضع الحالي لا أحد يقبل بهذا الربح، مبيناً أن جمعية حماية المستهلك تراقب الأسواق وتنقل الحالات التي إلى الجهات المعنية وتتابع قمع هذه الحالات المخالفة لأنها كجمعية لا تستطيع مساءلة الباعة حول أسباب ارتفاع الأسعار.وأوضح دخاخني للوطن أن وزارة الاقتصاد تحاول ضبط الأسواق من خلال نحو 600 مراقب تمويني أو أكثر في حين الحاجة هي لعشرات الآلاف للقيام بمهمة المراقبة التموينية بحدودها المعقولة والقادرة على وقف الغش والتلاعب في مئات الآلاف من المتاجر، في الوقت الذي تكرر فيه الوزارة مقولة «الأسعار محررة» فما مبرر التحرير..؟ وما هوية الاقتصاد السوري منذ عام وبعد عام على الأزمة.وبين دخاخني أنه يرى في الاقتراح الذي تقدمت به وزارة الاقتصاد لتشغيل فائض العمالة في الجهات العامة كمراقبي تموين نوعاً من حل، وخصوصاً أن الوزارة اعترفت بعجزها عن مراقبة الأسعار ولجم ارتفاعها لعدم امتلاكها العدد الكافي من المراقبين.ويأمل دخاخني أن يساعد الاقتراح في مراقبة الأسواق وفق الأسس والمعايير التي تساعد فعلاً في مراقبة الأسواق ضمن معادلة العلاقة السليمة والشفافة بين التاجر والمراقب، لمراقبة ما يزيد على مليون و300 ألف متجر في سورية لم يعد أصحاب معظمها يرضون بربح يقل عن50% وليس بكيس السكر أو بكرتونة البيض الفارغين، وهو ما يدفع بزمريق للتساؤل عن دور مؤسسات التدخل الإيجابي وعدم تجيير أرباحها لدعم السلع الأساسية لذوي الدخل المحدود.. وما قاله زمريق يؤكده أغلب المستهلكين الذين يرون في أسعار صالات الخزن والتسويق فرقاً عن أسعار السوق.",
                "tags": [
                    "حكومي"
                ]
            },
            {
                "date": "2012-03-31T00:00:00.000+0000",
                "image": "https://aliqtisadi.com/wp-content/uploads/2012/sy-11727.jpg",
                "id": "52426",
                "title": "النسيجية تغرق في الخسائر وتبحث عن قرار جدي لتحديد تسعير الغزول القطنية",
                "content": " في الوقت الذي لا تزال فيه وزارة الصناعة تبتكر آليات لتطوير واقع قطاع الصناعات النسيجية تنبئ فيه عن استثمارات بمليارات الليرات وتأمين فرص عمل تصل إلى أكثر من 121750 فرصة عمل تحلم وزارة الصناعة بحصدها بعد خمس سنوات نجد أن المؤسسة العامة للصناعات النسيجية لا تزال تتخبط في خسائر متتالية بحثاً عن قرار جدي لتحديد تسعير الغزول القطنية الأمر الذي يعد من أبرز القضايا التي تعاني منها المؤسسة والواقع الحالي للمؤسسة وفق الظروف المتاحة يتطلب منها الخروج من هذا واقع الراهن إلى محطة جديدة يتم من خلالها تحقيق نقطة التعادل ومن ثم الانتقال إلى المرحلة المنشودة وتحقيق ريعية اقتصادية الأسباب الأساسية لعدم تحقيق المؤسسة لخطة مبيعاتها الداخلية والخارجية.وبلغة الأرقام بينت المتغيرات الأساسية للمؤسسة العامة للصناعات النسيجية أن هناك تراجعاً واضحاً في المبيعات الإجمالية للمؤسسة حسب التقرير الأخير الصادر عن المؤسسة لغاية نهاية شهر شباط من العام الماضي والبالغ 4 مليارات ليرة سورية وبيّن التقرير أن المبيعات انخفضت إلى نحو 3 مليارات و276 مليون ليرة لنهاية الشهر الثاني من العام الجاري وكانت بلغت نحو 3 مليارات و663 مليون ليرة للفترة نفسها من عام 2010.كما انخفضت صادرات النسيجية بنسب كبيرة وصلت إلى أقل بعشرة أضعاف خلال الفترة ذاتها من نحو مليار و760 مليون ليرة حتى نهاية الشهر الثاني من عام 2010 إلى أقل من 118 مليون ليرة للفترة ذاتها من عام 2012 بعد أن كانت ارتفعت إلى نحو مليار و783 مليون ليرة للفترة نفسها من العام الذي قبله.وفيما يخص المخازين بحسب التقرير فقد ارتفعت مخزون المؤسسة العامة للصناعات النسيجية من نحو 68.9 مليون ليرة حتى نهاية الشهر الثالث من عام 2010 إلى 10 مليارات و813 مليون ليرة للفترة نفسها من عام 2011 ثم إلى نحو 13 ملياراً و73 مليون ليرة من الفترة ذاتها من عام 2012.المبيعات الداخلية للمؤسسة العامة للصناعات النسيجية فقد ارتفعت بشكل متدرج خلال السنوات الثلاث الأخيرة وذلك نتيجة الانخفاض الكبير لصادرات المؤسسة الخارجية والتي تدنت إلى نحو عشرة أضعاف خلال السنوات الثلاث الأخيرة.وكانت المبيعات الداخلية تصاعدت خلال السنوات الثلاثة الأخيرة من مليار و903 ملايين ليرة إلى مليارين و216 مليون ليرة ليصل إلى أكثر من 3 مليارات و158 مليون ليرة. ",
                "tags": [
                    "تجارة واستثمار"
                ]
            },
            {
                "date": "2012-03-31T00:00:00.000+0000",
                "image": "https://aliqtisadi.com/wp-content/uploads/2012/sy-11729.jpg",
                "id": "52430",
                "title": "وزير الكهرباء يعد بتحسين واقع الكهرباء وتخفيف التقنين قريباً",
                "content": "أكد وزير الكهرباء عماد خميس أهمية العمل الذي تقوم به شركة توليد الكهرباء في بانياس التي تنتج 5 مليارات كيلو واط ساعي أي ما يعادل 10% من حجم الطلب على الطاقة في سورية.وأوضح الوزير خلال الجولة التي قام بها أمس إلى الشركة العامة لتوليد كهرباء بانياس أن الشركة تقوم بدور كبير في تأمين الطلب على الطاقة وخاصة في ظل الظروف الاستثنائية التي تمر بها سورية، لافتاً إلى الدور الكبير لقطاع الكهرباء كقطاع خدمي واقتصادي وحيوي في بناء اقتصاد الوطن لأن الكهرباء جزء من أمن البلد يرتبط مباشرة بكل نواحي العمل.ونوه بالجهود التي قام بها مهندسو وفنيو شركة توليد كهرباء بانياس لإصلاح وإعادة تأهيل المجموعة الثانية التي تعرضت لحريق خلال الشهر الماضي ما أدى إلى خروجها عن الخدمة وتعطل بعض المعدات الكهربائية والالكترونية حيث يتم العمل لإصلاحها بالاعتماد على خبرات فنية وطنية من داخل الشركة مؤكداً أن الوزارة تعمل بالتعاون مع الوزارات ذات العلاقة للتخفيف من التقنين وأن الوضع سيتحسن خلال الأيام القادمة. وأشار خميس للوطن إلى أن قطاع الكهرباء في أي بلد من العالم يعاني في الأحوال العادية من تحديات كبيرة منها الاستثمارات والتكاليف الكبيرة للمشروعات وتأمين الفيول لافتا إلى أهمية وضع إستراتيجية جديدة تتناسب مع متطلبات المرحلة الحالية والمقبلة لمواكبة سورية الحديثة بكل مكوناتها ما يتطلب بذل جهود لتحسين واقع العمل الإداري والفني كل حسب موقعه.مبيناً أن قطاع الكهرباء في سورية يتحمل أعباء إضافية خلال الظروف الحالية نتيجة تعرض خطوط نقل الفيول والغاز للتخريب من قبل المجموعات الإرهابية المسلحة حيث لا يزال لدينا حتى اليوم 2300 ميغا واط ساعي خارج الخدمة مؤكداً أن الوزارة تعمل بكامل طاقاتها البشرية والفنية لإعادة الخطوط إلى عملها.وكشف أنه لدى الوزارة دراسة جدوى اقتصادية حول عمل شركة توليد كهرباء بانياس لناحية استبدال أو صيانة العنفات القديمة بما يتناسب مع البيئة أو إيجاد آلية جديدة تتناسب مع المرحلة القادمة إضافة إلى مشروع توسيع الشركة مستقبلاً. بدوره أوضح مدير شركة توليد كهرباء بانياس محمد غانم أن ثلاث عنفات بخارية تعمل حالياً في الشركة الأولى بطاقة 120-130 ميغاواط أي ما يعادل 85% من استطاعتها الكاملة والثالثة والرابعة بطاقة 150 ميغا واط مؤكداً أن كمية الطاقة المولدة خلال الربع الأول من العام الحالي وصلت إلى أكثر من 94%.",
                "tags": [
                    "نفط وطاقة"
                ]
            },
            {
                "date": "2012-03-31T00:00:00.000+0000",
                "image": "https://aliqtisadi.com/wp-content/uploads/2012/sy-11732.jpg",
                "id": "52436",
                "title": "دخاخني: 400 مليون ليرة الحد الأدنى للإنفاق على الدعاية الانتخابية لمرشحي مجلس الشعب بدمشق",
                "content": "أكّد نائب رئيس غرفة تجارة دمشق بهاء الدين حسن والذي ترشح لخمس دورات في مجلس الشعب أنه لم يترشح لهذه الدورة ليفسح المجال للشباب والوجوه الجديدة، مبيناً أن أحداً لم يرشح نفسه للانتخابات من إدارة غرفة تجارة دمشق، وتوقع أن غرفة صناعة دمشق أيضاً غابت عن الانتخابات على مستوى أعضاء مجلس إدارتها.وحول الإنفاق المالي على الدعاية الانتخابية والذي حدد القانون الناظم للدعاية الانتخابية سقفه بمبلغ 3 ملايين ليرة للمرشح الواحد في كل دورة انتخابية، فهو لا يكفي -بنظر الحسن- للقيام بدعاية انتخابية، فالذي يريد أن يدخل الانتخابات ويحقق النتائج عليه أن يدفع أكثر من هذا المبلغ بكثير.وقال للوطن: إذا فرضنا أنه يوجد بدمشق 1100 مركز وعلى كل مركز وكيل واحد فقط، فهذا يعني أن الدعاية ستحتاج لـ1100 وكيل بالحد الأدنى، أجرتهم بالحد الأدنى 3 ملايين ليرة ما عدا تكاليف طعامهم وشرابهم وعدا تكاليف الحملة الإعلامية، مشيراً إلى أنه لا أحد يحاسب على تجاوز المبلغ المرصود بالقانون للدعاية الانتخابية ولا أحد يضبط مبلغ الإنفاق لدى كل مرشح. وأضاف: شاركت بخمس دورات وببعضها تم تحديد مبلغ الدعاية بقانون أيضاً لكن فعلياً لم تضبط أي جهة رسمية الإنفاق، متسائلاً: ما الذي يمنع المرشح من دفع مليونين ليرة ثم يقول إنه دفع 100 ألف ليرة فقط؟ولم يتوقع الحسن أن تحرك الحملات الانتخابية السوق بأكمله، ماعدا بعض الأمور الخاصة بالحملات كسوق الخطاطين والمطابع وغالباً سوق الأغذية كما ستستفيد اليد العاملة الخاصة بالوكلاء الإعلانيين. وكذلك رأى نائب رئيس غرفة تجارة دمشق بهاء الدين حسن أن مبلغ 3 ملايين ليرة لا يكفي لقيام حملة انتخابية.وكذلك قال رئيس جمعية حماية المستهلك عدنان دخاخني لـ الوطن أن الإنفاق المالي على الدعاية الانتخابية والمحدد بـ3 ملايين ليرة مبلغ صغير قياساً بالغلاء السائد في البلد، فالمرشح عليه أن يخوض معركة انتخابية بكل المقاييس والذي يمتلك المال الأكثر ستكون فرصته أكبر أما المرشح ذو الإمكانات المحدودة فلن يستطيع توفير الوكلاء الإعلانيين اللازمين لحملته الانتخابية ما يعني أن المال سيكون له دور مؤثر جداً بنتائج الانتخابات. مشيراً إلى أن أجرة الوكيل الإعلاني خلال يومين لا تقل عن 3000 ليرة وهؤلاء الوكلاء يعتبرون الانتخابات مناسبة جيدة وفرصة ثمينة لهم.وأكد أن هناك مرشحين يدفعون أكثر من 10 ملايين على دعايتهم الانتخابية، وأن من شأن الحملات الانتخابية أن تحرك سوق المطابع واللافتات وسيارات النقل والفرق الشعبية والمقاهي والمطاعم، فمرشحو دمشق وحدهم سيضخون بالحد الأدنى ما بين 300 إلى 400 مليون في السوق.وبيّن دخاخني أنه لم يترشح لانتخابات مجلس الشعب في هذه الدورة، وخاصة أنه رشح نفسه لأربع دورات ماضية ويرغب بفتح المجال أمام الآخرين علهم يدخلون الفعالية وروح الشباب على المجلس، فتكرار الأشخاص أنفسهم يسبب تراجعاً بالأداء ويضيع الفرص على المهارات الجديدة، مؤكداً أن المجلس في الفترة السابقة لم يكن مجمداً وقد اتخذ عدة قرارات اقتصادية فعالة أهمها قانون العمل لكن الآمال أكبر من الإمكانات.",
                "tags": [
                    "حكومي"
                ]
            },
            {
                "date": "2012-03-31T00:00:00.000+0000",
                "image": "https://aliqtisadi.com/wp-content/uploads/2012/sy-11733.gif",
                "id": "52438",
                "title": "الرئيس الأسد يصدر قانوناً يقضي بإحداث الشركة السورية للمدفوعات الإلكترونية",
                "content": "أصدر رئيس الجمهورية بشار  الأسد القانون رقم 13 للعام 2012 القاضي بإحداث الشركة السورية للمدفوعات الالكترونية والتي تقوم بإنشاء البنى التحتية اللازمة لخدمات الدفع الإلكتروني وتكون مسؤولة بوجه خاص عن تنفيذ وتشغيل المنظومة الوطنية الموحدة للدفع الالكتروني وذلك على اسس اقتصادية وتنموية.وفيما يلي نص القانون:القانون رقم 13رئيس الجمهوريةبناء على أحكام الدستور:وعلى ما أقره مجلس الشعب في جلسته المنعقدة بتاريخ 5-5-1433 هجري الموافق 28-3-2012 ميلادي.يصدر مايلي:المادة (1):أ- تؤسس في الجمهورية العربية السورية شركة مساهمة مغفلة تملك الدولة ممثلة بالخزينة العامة اسهمها كافة وذلك طبقاً لأحكام قانون الشركات الصادر بالمرسوم التشريعي ذي الرقم 29 لعام 2011 ولاسيما المادة 6 البند 3 منه.ب- تسمى الشركة \"الشركة السورية للمدفوعات الإلكترونية\".ج- غاية الشركة إنشاء البنى التحتية اللازمة لخدمات الدفع الالكتروني وتكون مسؤولة بوجه خاص عن تنفيذ وتشغيل المنظومة الوطنية الموحدة للدفع الالكتروني وذلك على أسس اقتصادية وتنموية.د- تعمل الشركة بضمانة الدولة وتكون اموالها وموجوداتها من أملاك الدولة الخاصة.هـ- تخضع الشركة لقانوني التجارة والشركات النافذين وتعديلاتهما في كل ما لم يرد عليه نص في هذا القانون.المادة (2):أ- يدير الشركة مجلس ادارة يختار رئيسه وأعضاءه من المختصين في مجالات المعلوماتية والإدارة والاقتصاد والمالية والقانون على ان يكونوا جميعا اشخاصا طبيعيين من حملة الجنسية العربية السورية.ب- يعين رئيس واعضاء مجلس الادارة بقرار من مجلس الوزراء بناء على ترشيح من الهيئة العامة للشركة وتحدد الهيئة العامة تعويضاتهم ومكافآتهم.المادة (3):تمثل الهيئة العامة للشركة الجمهورية العربية السورية بصفتها المالك وتتألف من:وزير الاتصالات والتقانة.حاكم مصرف سورية المركزي.رئيس مجلس الإدارة في الشركة.ممثل عن كل من وزارة المالية ووزارة الاقتصاد والتجارة وهيئة التخطيط والتعاون الدولي والجهاز المركزي للرقابة المالية يختارهم مجلس الوزراء على الا تقل مرتبتهم عن مرتبة معاون وزير أو مدير عام أو مدير مركزي.المادة (4):يصدر بقرارات من مجلس الوزراء:1- النظام الأساسي للشركة ويحدد فيه غاية الشركة ومهامها ورأس مالها وطريقة تسديده.2- نظام العمل والعاملين في الشركة بما يتوافق مع قانون العمل النافذ.3- النظام المالي والمحاسبي ونظام العقود في الشركة.المادة (5):يجوز بيع جزء من اسهم الشركة أو تداولها أو طرحها على الاكتتاب العام بموافقة من مجلس الوزراء بناء على اقتراح من الهيئة العامة غير العادية ويجري عندها تعديل النظام الأساسي للشركة وبخاصة ما يتعلق بتكوين الهيئة العامة ومجلس الإدارة على النحو الذي يتوافق مع نسب المساهمة في رأس المال.المادة (6):تخضع أعمال الشركة لرقابة مجلس الوزراء ووزارة المالية ووزارة الاقتصاد والتجارة في كل ما يتعلق بتنفيذ أحكام قانوني التجارة والشركات النافذين.المادة (7):تكلف وزارة الاتصالات والتقانة بإتمام إجراءات التأسيس ومعاملات الشهر والتسجيل الخاصة بالشركة وذلك وفق أحكام قانون الشركات النافذ.المادة (8):ينشر هذا القانون في الجريدة الرسمية.دمشق في 6-5-1433 هجري الموافق لـ 29-3-2012 ميلادي.",
                "tags": [
                    "حكومي"
                ]
            },
            {
                "date": "2012-03-31T00:00:00.000+0000",
                "image": "https://aliqtisadi.com/wp-content/uploads/2012/sy-11735.jpg",
                "id": "52442",
                "title": "أكثر من مليون شخص يحصلون على إعانات البطالة في السعودية",
                "content": " قالت وزارة العمل السعودية ان أكثر من مليون شخص يحصلون الآن على إعانات البطالة في المملكة. وكان العاهل السعودي الملك عبد الله أعلن عن برنامج “حافز” الذي يمنح العاطلين عن العمل إعانات شهرية بقيمة 2000 ريال (533 دولارا) خلال الاضطرابات التي اجتاحت العالم العربي العام الماضي وبدأ تطبيق البرنامج في أواخر عام 2011.وقال خالد العجمي المدير العام لبرنامج اعانة الباحثين عن عمل “حافز” ان عدد المستفيدين من البرنامج ارتفع هذا الشهر بنسبة 40 في المئة على أساس شهري وبنسبة 170 في المئة مقارنة بالرقم المسجل في ديسمبر كانون الاول وهو أول شهر جرى فيه صرف تلك الاعانات الشهرية للعاطلين.ويبلغ معدل البطالة الرسمي في السعودية 10.5 في المئة لكن هذا الرقم لا يشمل الاعداد الكبيرة من السعوديين في سن العمل الذين لم يجر احتسابهم ضمن القوة العاملة.ويقول اقتصاديون ان الارقام الحكومية الحديثة تشير الى أن معدل المشاركة في القوة العاملة – وهم الاشخاص العاملون أو الذين يقولون انهم يبحثون عن عمل – بلغ 36.4 بالمئة وهو ما يقارب نصف المعدل العالمي.ونقلت صحيفة “أراب نيوز” عن محمود عوض مدير مشروع “لقاءات” -وهو مشروع مواز للتوظيف اطلقته وزارة العمل- قوله ان فاتورة البطالة السنوية تتجاوز 5.5 مليارات ريال.ويشغل نحو 90 في المئة من السعوديين العاملين وظائف في القطاع الحكومي بينما يشغل نحو ثمانية ملايين عامل اجنبي 90 في المئة من وظائف القطاع الخاص.وفي كانون الثاني قال وزير العمل السعودي عادل فقيه ان المملكة بحاجة لخلق ثلاثة ملايين وظيفة للسعوديين بحلول عام 2015 وستة ملايين وظيفة بحلول 2030 عبر جهود من بينها “سعودة” الاعمال التي يقوم بها الوافدون.ونما الاقتصاد السعودي 6.8 في المئة العام الماضي مدعوما بارتفاع ايرادات النفط والانفاق الحكومي السخي في بلد يعيش فيه نحو 18 مليون مواطن.وقالت وكالة الانباء السعودية ان النساء يمثلن أكثر من 80 في المئة من الحاصلين على اعانات البطالة. وعلى الرغم من معارضة رجال الدين المحافظين ذوي النفوذ تعمل الحكومة على تعزيز دخول السعوديات الى سوق العمل.وخصصت الحكومة وظائف للنساء في محال بيع الملابس النسائية وتهدف في مرحلة لاحقة الى تأنيث محال بيع أدوات التجميل.ويقول بعض النقاد ان برنامج حافز ربما يشجع السعوديين على الكف عن البحث عن وظائف في القطاع الخاص حيث أحيانا ما تكون الرواتب أقل من إعانات البطالة. الا أن اقتصاديين يقولون انه ربما يدفع أيضا السعوديين المسجلين حاليا خارج نظاق القوة العاملة الى تسجيل أنفسهم كعاطلين عن العمل وهو ما سيمكن الحكومة من تكوين صورة أدق عن مستويات البطالة.والى جانب حافز أطلقت الحكومة نظام “نطاقات” الذي يحدد العدد المطلوب توظيفه من السعوديين العاملين مقابل الاجانب وفقا لحجم كل شركة والقطاع الذي تعمل به. ",
                "tags": [
                    "منوعات"
                ]
            },
            {
                "date": "2012-03-31T00:00:00.000+0000",
                "image": "https://aliqtisadi.com/wp-content/uploads/2012/sy-11736.jpg",
                "id": "52444",
                "title": "نبذة عن مجموعة \"بريكس\"",
                "content": "  مجموعة \"بريكس\" هي منظمة سياسية بدأت المفاوضات لتشكيلها عام 2006 وعقدت اول مؤتمر قمة لها عام 2009. وكان أعضاؤها هم الدول ذوات الاقتصادات الصاعدة وهي البرازيل وروسيا والهند والصين تحت إسم \"بريك \" أولا ثم انضمت جنوب إفريقيا إلى المنظمة عام 2010 ليصبح اسمها \"بريكس\".وتتميز دول المنظمة بأنها من الدول النامية الصناعية ذوات الاقتصادات الكبيرة والصاعدة.ويعيش في الدول الخمس نصف سكان العالم ويوازي الناتج الاجمالي المحلي للدول محتمعة ناتج الولايات المتحدة (13.6 تريليون دولار) ويبلغ مجموع احتياطي النقد الأجنبي لدول المنظمة 4 تريليون دولار.ووصف الرئيس الصيني لي جينتاو دول \"بريكس\" بأنها \"المدافعة عن مصالح الدول النامية وأنها قوة من أجل السلام العالمي\".وكان وزراء خارجية دول \"بريك\" اجتمعوا في نيويورك عام 2006 مدشنين بذلك سلسلة اجتماعات لاحقة للتشاور حول تأسيس المنظمة.وفي عام 2008 عقد اجتماع في مدينة ييكاترينبرغ الروسية ، ثم تبع ذلك اول مؤتمر قمة لدول المجموعة في 16 يونيو/حزيران عام 2009 فيييكاترينبرغ.في عام 2010 بدأت جنوب إفريقيا التفاوض حول الانضمام الى المجموعة، وهو ماتم رسميا في 24 ديسمبر/كانون أول عام 2010.المصدر: بي بي سي ",
                "tags": [
                    "تكنولوجيا"
                ]
            },
            {
                "date": "2012-03-31T00:00:00.000+0000",
                "image": "https://aliqtisadi.com/wp-content/uploads/2012/sy-11737.jpg",
                "id": "52446",
                "title": "الحكومة الإسبانية تجمّد رواتب القطاع العام وتخفض ميزانيات الوزارات بنسبة 17%",
                "content": "  قررت الحكومة الإسبانية تجميد رواتب عمال القطاع العام للعام الحالي. وأعلنت نائبة رئيس الوزراء  سورايا سينز دي ساتامارسا إن هذه الخطوة تأتي في إطار مساعيها لاحتواء العجز في الميزانية.وفي مؤتمر صحفي بعد اجتماع لمجلس الوزراء الإسباني الجمعة قالت ساتامارسا\" لقد قررنا مواصلة زيادة المعاشات وتجميد رواتب الموظفين وليس تخفيضها والإبقاء على مساعدات البطالة\".وقرر المجلس، الذي أقر في اجتماعه الميزانية الجديدة، أيضا تخفيض ميزانيات الوزارات بنسبة 17% في العام الحالي.كانت اسبانيا قد شهدت مصادمات بين الشرطة والمتظاهرين الخميس الذي شهدت فيه البلاد إضرابا عاما دعت إليه النقابات العمالية للاحتجاج على خطط إصلاح فرضتها الحكومة.وقعت معظم المواجهات في مدينة برشلونة حيث أفادت أنباء بقيام محتجين بتحطيم واجهات المتاجر وإشعال النيران في صناديق القمامة.وردت الشرطة بإطلاق الغاز المسيل للدموع والرصاص المطاطي، وقالت النقابات إن 800 ألف شخص شاركوا في مظاهرات برشلونة إلا أن الشرطة قدرت عدد المحتجين بنحو ثمانين ألفا.كما شهدت العاصمة مدريد ومدن اخرى احتجاجات على خطط حكومة يمين الوسط برئاسة ماريانو راخوي.وقدرت النقابات عدد المتظاهرين في مدريد بنحو 900 ألف، وتحدثت أنباء عن وقوع مواجهات بين الشرطة والنقابيين من العاملين في قطاع النقل بالحافلات حيث كان أكبر تجمع للمضربين. المصدر: بي بي سي  ",
                "tags": [
                    "تكنولوجيا"
                ]
            },
            {
                "date": "2012-03-31T00:00:00.000+0000",
                "image": "https://aliqtisadi.com/wp-content/uploads/2012/sy-11739.jpg",
                "id": "52450",
                "title": "محمود مثقال يعود إلى الواجهة.. هل ساهم في إيداع أموال للمصرف التجاري السوري في بريطانيا؟",
                "content": "تجري هذه الأيام مواجهة إعلامية بين صحيفة تشرين الرسمية والمصرف التجاري السوري على خلفية تحقيق صحفي.وفي الردود المتبادلة والتي ننشر آخرها اليوم ينكشف أن المصرف التجاري يعترف بأن بعض قروضه أصبحت هالكة وأنّ المدير العام الأسبق محمود مثقال هو أحد أبطال قصة تعود للظهور من جديد وقد يكون ساهم في إيداع أموال في مصرف بريطاني كوديعة ما يجعلها معرضة للعقوبات الأوروبية، وفيمايلي الردود الجديدة: السيد رئيس تحرير صحيفة تشرين رداً على التحقيق المنشور في صحيفتكم في عددها ذي الرقم 11351 من يوم الأربعاء والذي يحمل عنوان «8 مليارات ليرة قروض التجاري المتعثرة.. 50% من المقترضين لا يستطيعون السداد حالياً» حيث تقدم محرر التحقيق إلى المصرف بكتاب يطلب فيه تزويده بتفسير لما سماه بظاهرة القروض من دون ضمانات في تاريخ 17/8/2011 ولابد من توضيح بعض النقاط المهمة المتعلقة بموضوع التحقيق وبالطلب المذكور:- تضمن المغلف المرفق بالطلب مجموعة أوراق مبهمة الشكل والمضمون إذ لم تحتو سوى أسماء وأرقام هواتف لأشخاص ليسوا بمتعاملين حاليين مع المصرف، إما لوقف التعامل معهم منذ أكثر من عشر سنوات وصدور قرارات حجز نهائية بحقهم لعدم قدرتهم على إجراء تسوية، وسبق للمصرف أن قطع معهم كل مراحل الإجراءات القانونية.. أما بعضهم الآخر فلم يسبق لهم التعامل مع المصرف أساساً، كما ذكر اسم السيد محمود مثقال وهو مدير عام أسبق للمصرف ولم يكن مقترضاً كما ورد في بيانات الطلب. - تطرق التحقيق الصحفي للحديث عن قروض قديمة يعود تاريخها لأكثر من عشرين عاماً أي لم تعاصرها الإدارة السابقة التي ألمح إليها الصحفي في حديثه عن تواطؤ هذه الإدارة بتمرير قروض بضمانات غير حقيقية، علماً بأن للمصرف التجاري السوري تاريخاً عريقاً في الالتزام بالتعليمات وتطبيق القوانين على نحو يضمن المال العام، كما اشتهر بسياسته المتحفظة في منح التسهيلات أو زيادتها لأي متعامل بضمانة متفقة مع التعليمات ويشهد عليها خبراء محلفون من المحكمة وفق الأصول. - لم تتخذ الأوراق المقدمة من قبل الصحفي أي شكل من أشكال الكشوفات الصادرة عن المصرف التي تتضمن بيانات فعلية عن متعاملين فعليين لديه، ولدى العودة إلى مديرية التسليف وسؤالها عن علاقة المتعاملين بالمصرف تبين عدم وجود قروض موقوفة للأسماء المطروحة من قبل الصحفي المذكور وعليه تمت إجابته بأن البيانات المقدمة من قبله لا تتعدى كونها مجرد مزاعم، ولتأكيد وجهة نظره لابد من تقديم ثبوتيات وبيانات حقيقية وواضحة إلا أنه لم يعاود الاتصال أو إرسال ما يثبت دعواه. - اعتمد الصحفي في تقصي الحقائق الاستناد إلى القيل والقال حيث إن معظم ما تحدث عنه يأتي في سياق مشاهداته لموظفين من المصرف التجاري السوري أطلق عليهم اسم المطالبين بالقروض المتعثرة يسيرون في شوارع دمشق وأزقة أسواقها- بحسب تعبيره للسؤال عن أسماء غير معلومة العنوان أو الإقامة.- ومن الأخطاء التي وقع فيها الصحفي المثال الذي طرحه عن القرض المتعلق بقضية السيد محمود مثقال، حيث مازالت قيد التداول لدى الجهات القضائية والمرتبطة بحساب للمصرف التجاري السوري جرى إيداعه لدى مصرف london trust bank كوديعة، والأمر لا يتعلق بتسهيلات أو قرض متعثر كما أوحى في خبره. - وجه الصحفي في معرض تحقيقه بعض الملاحظات التي تدخل في صميم عمل المصرف، وتعد من بدهيات عمله مثل ضرورة مراقبة الملفات التسليفية من قبل الجهة المعنية لدى المصرف، فمراقبة القروض هي خطوة متقدمة يقوم بها المصرف بعد عمل خطوات وإجراءات احترازية قبل المنح عبر تأكده الكامل من الملاءة المالية لطالبي القروض والضمانات الكافية لتغطية قيمتها.- وأخيراً لابدّ من أن نوضح أن القروض المتعثرة هي تلك القروض التي لا يلتزم العميل بتسديدها وفق التواريخ المتفق عليها مع إدارة المصرف، إما لعجز عارض في المشروع أو لعدم قدرة المقترض على التسديد لفشل المشروع موضوع القرض. وبعض تلك القروض تعد بمنزلة قروض هالكة استنفدت إدارة المصرف كل الوسائل الممكنة لتحصيلها. وتعثر المتعاملين في تسديد التزاماتهم لا يعني بالضرورة تواطؤ إدارة المصرف معه، ويأتي تحفظ المصرف على المعلومات المتعلقة بمتعامليه نتيجة التزامه بقانون السرية المصرفية حفاظاً على حقوق جميع الأطراف، وقد اعتاد المصرف التواصل الشفاف مع الصحافة، ولم يبخل بوقت أو معلومة سواء فيما يتعلق بالخدمات الجديدة أو بالمشكلات التي يثار الحديث عنها في الصحافة والتي تتعلق بصميم عمل المصرف، كما أننا نؤمن بدور الصحافة كذلك نؤمن بالنقد البنّاء الذي يهدف إلى تحقيق بيئة عمل صحيحة لكلا الطرفين.المدير العامأحمد محمد دياب تعقيب المحررالأسئلة التي توجهنا بها للإدارة السابقة كانت الأجوبة عليها تدور في فلك الظن أو الإساءة من الصحافة للعمل المصرفي، ولم نذكر حينها أن السيد محمود مثقال هو أحد المقترضين، والكشوفات هي لمتعاملين تعثرت قروضهم وفيها أرقام هواتفهم والمبالغ التي حصلوا عليها.. ونتساءل: إذا كان المصرف يقوم بإجراءات احترازية قبل منح القروض ويتأكد من الملاءة المالية لطالبيها، وأن هناك ضمانات كافية لتغطية قيمتها فلماذا تعثرت إذاً القروض وبلغت 8 مليارات ليرة عصية عن التحصيل؟!وأي اعتماد على القيل والقال مادامت القروض متعثرة أكبر دليل فهل هي من باب القيل والقال؟! ",
                "tags": [
                    "مصارف وأسواق مالية"
                ]
            }
        ],
        "facets": {
            "count": 66,
            "categories": {
                "buckets": []
            },
            "tags": {
                "buckets": [
                    {
                        "value": "حكومي",
                        "count": 15
                    },
                    {
                        "value": "تجارة واستثمار",
                        "count": 13
                    },
                    {
                        "value": "مصارف وأسواق مالية",
                        "count": 12
                    },
                    {
                        "value": "تكنولوجيا",
                        "count": 7
                    },
                    {
                        "value": "منوعات",
                        "count": 7
                    },
                    {
                        "value": "تعليم وشباب",
                        "count": 2
                    },
                    {
                        "value": "حوادث الاقتصادي",
                        "count": 2
                    },
                    {
                        "value": "سياحة",
                        "count": 2
                    },
                    {
                        "value": "عقارات",
                        "count": 2
                    },
                    {
                        "value": "معارض ومؤتمرات",
                        "count": 2
                    },
                    {
                        "value": "نفط وطاقة",
                        "count": 2
                    },
                    {
                        "value": "إعلام",
                        "count": 1
                    },
                    {
                        "value": "تنمية",
                        "count": 1
                    }
                ]
            },
            "authors": {
                "buckets": []
            },
            "year": {
                "buckets": []
            }
        },
        "spelling": null
    }
}